{
  "$schema": "https://raw.githubusercontent.com/JanDeDobbeleer/oh-my-posh/main/themes/schema.json",
  "final_space": false,
  "osc99": true,
  "blocks": [
    {
      "type": "prompt",
      "alignment": "left",
      "segments": [
        {
          "type": "shell",
          "style": "diamond",
          "leading_diamond": "\uE0b6",
          "trailing_diamond": "",
          "foreground": "black",
          "background": "white",
          "properties": {
          }
        },
        {
          "type": "root",
          "style": "powerline",
          "leading_diamond": "",
          "trailing_diamond": "",
          "foreground": "black",
          "background": "cyan",
          "properties": {
            "root_icon": "⚡ ",
            "prefix": "<parentBackground>\uE0B4</> ",
            "postfix":""
          }
        },
        {
          "type": "path",
          "style": "powerline",
          "powerline_symbol": "\uE0B4",
          "foreground": "black",
          "background": "cyan",
          "properties": {
            "prefix": "  ",
            "style": "full",
            "enable_hyperlink": true
          }
        },
        {
          "type": "git",
          "style": "diamond",
          "leading_diamond": " \uE0B6",
          "trailing_diamond": "\uE0B4",
          "foreground": "black",
          "background": "magenta",
          "background_templates": [
            "{{ if or (.Working.Changed) (.Staging.Changed) }}#ffeb95{{ end }}",
            "{{ if and (gt .Ahead 0) (gt .Behind 0) }}#c5e478{{ end }}",
            "{{ if gt .Ahead 0 }}#C792EA{{ end }}",
            "{{ if gt .Behind 0 }}#C792EA{{ end }}"
          ],
          "properties": {
            "branch_icon": " ",
            "fetch_status": true,
            "fetch_upstream_icon": true,
            "template": "{{ .HEAD }} {{ if .Working.Changed }}{{ .Working.String }}{{ end }}{{ if and (.Working.Changed) (.Staging.Changed) }} |{{ end }}{{ if .Staging.Changed }}<#ef5350> \uF046 {{ .Staging.String }}</>{{ end }}"
          }
        },
        {
          "type": "python",
          "style": "diamond",
          "leading_diamond": " \uE0B6",
          "trailing_diamond": "\uE0B4",
          "foreground": "black",
          "background": "yellow",
          "properties": {
            "prefix": "  ",
            "postfix": "",
            "display_mode": "files"
          }
        },
        {
          "type": "rust",
          "style": "diamond",
          "leading_diamond": " \uE0B6",
          "trailing_diamond": "\uE0B4",
          "foreground": "black",
          "background": "red",
          "properties": {
            "prefix": " ",
            "postfix": "",
            "display_mode": "files"
          }
        },
        {
          "type": "java",
          "style": "diamond",
          "leading_diamond": " \uE0B6",
          "trailing_diamond": "\uE0B4",
          "foreground": "black",
          "background": "red",
          "properties": {
            "prefix": " ",
            "postfix": "",
            "display_mode": "files"
          }
        }
      ]
    },
    {
      "type": "prompt",
      "alignment": "right",
      "segments": [
        {
          "type": "node",
          "style": "diamond",
          "leading_diamond": " \uE0B6",
          "trailing_diamond": "\uE0B4",
          "foreground": "#3C873A",
          "background": "#303030",
          "properties": {
            "prefix": "\uE718 ",
            "postfix": "",
            "display_package_manager": true,
            "yarn_icon": " <#348cba></>",
            "npm_icon": " <#cc3a3a></> "
          }
        },
        {
          "type": "executiontime",
          "style": "diamond",
          "invert_powerline": true,
          "leading_diamond": "\uE0B6",
          "trailing_diamond": "\uE0B4 ",
          "foreground": "black",
          "background": "yellow",
          "properties": {
            "threshold": 500,
            "style": "austin",
            "prefix": " ",
            "postfix": ""
          }
        },
        {
          "type": "time",
          "style": "diamond",
          "invert_powerline": true,
          "leading_diamond": "\uE0B6",
          "trailing_diamond": "\uE0B4",
          "background": "blue",
          "foreground": "black",
          "properties": {
            "prefix": " ",
            "postfix": ""
          }
        }
      ]
    },
    {
      "type": "prompt",
      "alignment": "left",
      "newline": true,
      "segments": [
        {
          "type": "exit",
          "style": "plain",
          "foreground": "white",
          "properties": {
            "prefix": "❯",
            "display_exit_code": false,
            "always_enabled": true,
            "error_color": "red"
          }
        }
      ]
    }
  ]
}